R para el monitoreo de la política de desarrollo social - 15 Análisis de texto (I)
…
Las palabras tienen un papel en el lenguaje, por lo cual muchas veces la unidad que usaremos será esa. Uno de los primeros pasos para el análisis de texto será descomponer nuestros textos en palabras.

15.9.1 Tokenización con {tidytext}

Para usar {tidytext}, necesitamos que nuestro texto esté en formato tibble:

amlo_df <-tibble(text=amlo)

A partir de esto podemos pasar al proceso de tokenización:

amlo_df %>%
  unnest_tokens(word, text)

# A tibble: 4,056 × 1
   word        
   <chr>       
 1 amigas      
 2 y           
 3 amigos      
 4 invitados   
 5 especiales  
 6 presidentes 
 7 municipales 
 8 presidentas 
 9 municipales 
10 gobernadores
# … with 4,046 more rows
…
