R para el monitoreo de la política de desarrollo social - 18 Análisis de texto (IV)
…
Vamos a importarlo

pandemia <- rvest::read_html(url2) 

Extraemos los elementos tipo “table”:

tabla<-pandemia %>% 
  html_elements("table")

Vamos a leer las tablas

tabla[[3]] %>% 
  html_table()

# A tibble: 35 × 8
   `Entidades federativas` Casos Falle…¹ Falle…² Recup…³ Recup…⁴ Casos…⁵ Repor…⁶
   <chr>                   <chr> <chr>   <chr>   <chr>   <chr>   <chr>   <chr>  
 1 Entidades federativas   Casos Cant.   %       Cant.   %       Casos … Report…
 2 Ciudad de México        959 … 51 545  5.37    870 765 90.75   10759.9 [26]​   
 3 Estado de México        638 … 55 786  8.73    553 180 86.59   3535.4  [27]​   
 4 Jalisco                 386 … 21 186  5.49    350 984 90.92   4615.8  [28]​   
 5 Nuevo León              279 … 17 490  6.26    249 506 89.32   5673.9  [29]​   
 6 Guanajuato              181 … 14 810  8.14    154 758 85.06   3015.7  [30]​   
 7 Michoacán               172 … 8600    4.98    164 158 94.99   3909.9  [31]​   
 8 Tabasco                 139 … 6637    4.77    130 166 93.6    6175.2  [32]​   
 9 Puebla                  122 … 17 987  14.73   93 823  76.84   5422.1  [33]​   
10 Veracruz                120 … 17 259  14.33   100 588 83.52   1446.2  [34]​   
# … with 25 more rows, and abbreviated variable names ¹​Fallecidos, ²​Fallecidos,
#   ³​Recuperados, ⁴​Recuperados, ⁵​`Casos por 100,000 de habitantes`,
#   ⁶​`Reporte del gobierno local`
…
